{
	"info": {
		"name": "Simple Authentication",
		"_postman_id": "db686621-bb2c-7491-5c0e-43f5a4186505",
		"description": "",
		"schema": "https://schema.getpostman.com/json/collection/v2.1.0/collection.json"
	},
	"item": [
		{
			"name": "Successful validation",
			"request": {
				"method": "POST",
				"header": [
					{
						"key": "Content-Type",
						"value": "application/json"
					}
				],
				"body": {
					"mode": "raw",
					"raw": "{\n\t\"username\": \"username\",\n\t\"password\": \"USERNAME\"\n}"
				},
				"url": {
					"raw": "localhost:8080/auth",
					"host": [
						"localhost"
					],
					"port": "8080",
					"path": [
						"auth"
					]
				},
				"description": ""
			},
			"response": []
		},
		{
			"name": "Failure validation",
			"request": {
				"method": "POST",
				"header": [
					{
						"key": "Content-Type",
						"value": "application/json"
					}
				],
				"body": {
					"mode": "raw",
					"raw": "{\n\t\"username\": \"username\",\n\t\"password\": \"password\"\n}"
				},
				"url": {
					"raw": "localhost:8080/auth",
					"host": [
						"localhost"
					],
					"port": "8080",
					"path": [
						"auth"
					]
				},
				"description": ""
			},
			"response": []
		},
		{
			"name": "Invalid username",
			"request": {
				"method": "POST",
				"header": [
					{
						"key": "Content-Type",
						"value": "application/json"
					}
				],
				"body": {
					"mode": "raw",
					"raw": "{\n\t\"username\": \"Arthur\",\n\t\"password\": \"ARTHUR\"\n}"
				},
				"url": {
					"raw": "localhost:8080/auth",
					"host": [
						"localhost"
					],
					"port": "8080",
					"path": [
						"auth"
					]
				},
				"description": ""
			},
			"response": []
		},
		{
			"name": "Health",
			"request": {
				"method": "GET",
				"header": [],
				"body": {
					"mode": "raw",
					"raw": "{\n\t\"username\": \"username\",\n\t\"password\": \"USERNAME\"\n}"
				},
				"url": {
					"raw": "localhost:8080/health",
					"host": [
						"localhost"
					],
					"port": "8080",
					"path": [
						"health"
					]
				},
				"description": ""
			},
			"response": []
		}
	]
}